[
  {
    "id": 1,
    "name": "Ananya Sharma",
    "email": "ananya.sharma@3rdilab.com",
    "role": "AI Intern",
    "photo_src": "./images/team/silhouette.png",
    "about": "Fueled by passion and driven by innovation, Keymaker, as Raj is rightfully known, is the soothsayer whose vision opens doors for people to see the world with their third eye."
  },
  {
    "id": 2,
    "name": "Anna Logacheva",
    "email": "anna.logacheva@3rdilab.com",
    "role": "UI/UX Designer & Front-End Developer",
    "photo_src": "./images/team/silhouette.png",
    "about": "Polishing and packaging everything to make it postcard perfect, Anna – the Beauty Maker – is responsible for handling all of our front end and design-related intricacies."
  },
  {
    "id": 3,
    "name": "Hannah Eliason",
    "email": "hannah.eliason@3rdilab.com",
    "role": "VR Content Creator",
    "photo_src": "./images/team/silhouette.png",
    "about": "Polishing and packaging everything to make it postcard perfect, Anna – the Beauty Maker – is responsible for handling all of our front end and design-related intricacies."
  },
  {
    "id": 4,
    "name": "Raj Nayak",
    "email": "raj.nayak@3rdilab.com",
    "role": "CEO",
    "photo_src": "./images/team/silhouette.png",
    "about": "Fueled by passion and driven by innovation, Keymaker, as Raj is rightfully known, is the soothsayer whose vision opens doors for people to see the world with their third eye."
  },
  {
    "id": 5,
    "name": "Sierra Francis",
    "email": "sierra.francis@3rdilab.com",
    "role": "AI Engineer",
    "photo_src": "./images/team/silhouette.png",
    "about": "When she’s not busy playing an instrument in a band, Sierra transforms into the Neural Neophyte who composes immaculate software symphonies and makes the Python sing like a choir."
  },
  {
    "id": 6,
    "name": "Vlad Radchenko",
    "email": "vlad.radchenko@3rdilab.com",
    "role": "Back End Developer",
    "photo_src": "./images/team/silhouette.png",
    "about": "Working behind the scenes to ensure that the magic never runs out, Vlad the Code Maven is the genius whose technical prowess always keeps us ahead of the game."
  }
]