[
  {
    "id": 1,
    "name": "How to create 3D content?",
    "id_tab": "id_tab_KSRkM6wE1Y4",
    "video_id": "KSRkM6wE1Y4",
    "description": "",
    "active": "active",
    "preview_src": "create-content-preview-tutorial.png",
    "category": "3D elements"
  },
  {
    "id": 1,
    "name": "How to view 3D content?",
    "id_tab": "id_tab_20dj_a3w3z0",
    "video_id": "20dj_a3w3z0",
    "description": "",
    "active": "",
    "preview_src": "view-content-preview-tutorial.png",
    "category": "3D elements"
  },
  {
    "id": 1,
    "name": "How to create 2D content?",
    "id_tab": "id_tab_x5amChtyCLg",
    "video_id": "x5amChtyCLg",
    "description": "",
    "active": "",
    "preview_src": "preview-tutorial-3.png",
    "category": "2D elements"
  },
  {
    "id": 1,
    "name": "How to view 2D content?",
    "id_tab": "id_tab_fpFcOr7aYfQ",
    "video_id": "fpFcOr7aYfQ",
    "description": "",
    "active": "",
    "preview_src": "preview-tutorial-4.png",
    "category": "2D elements"
  }
]