<svg width="40" height="40" viewBox="0 0 40 40" fill="none" xmlns="http://www.w3.org/2000/svg">
<rect width="40" height="40" fill="#F1F5FC"/>
<path d="M17.1166 25.6171C16.8084 25.7322 16.4736 25.7566 16.1519 25.6872C15.8303 25.6179 15.5353 25.4579 15.3018 25.226C15.1409 25.0671 15.0134 24.8776 14.9268 24.6687C14.8402 24.4599 14.7961 24.2358 14.7973 24.0096C14.799 23.8507 14.8227 23.6928 14.8677 23.5403C14.6981 23.2232 14.5668 22.8871 14.4766 22.5391C14.1171 23.0348 13.9519 23.6451 14.0121 24.2545C14.0724 24.8639 14.3539 25.4301 14.8034 25.8459C15.253 26.2617 15.8393 26.4983 16.4515 26.5109C17.0638 26.5235 17.6594 26.3113 18.1257 25.9144C17.7789 25.8549 17.4402 25.7552 17.1166 25.6171V25.6171Z" fill="#252F3F" fill-opacity="0.8"/>
<path d="M20.3455 24.0379C19.7804 24.3529 19.1281 24.4751 18.4873 24.3862C17.8465 24.2973 17.2522 24.002 16.7942 23.5451C16.3367 23.0892 16.0406 22.4964 15.951 21.8568C15.8613 21.2171 15.983 20.5658 16.2975 20.0016C16.2118 19.6359 16.1634 19.2624 16.1528 18.887C15.4873 19.597 15.1241 20.5381 15.1402 21.5111C15.1562 22.4842 15.5502 23.4128 16.2388 24.1005C16.9293 24.7869 17.8587 25.1793 18.8322 25.1953C19.8056 25.2113 20.7475 24.8498 21.4602 24.1865C21.0846 24.1741 20.7112 24.1244 20.3455 24.0379V24.0379Z" fill="#252F3F" fill-opacity="0.8"/>
<path d="M21.6141 23.4649C20.5194 23.4633 19.4592 23.0822 18.6139 22.3866C17.7687 21.691 17.1907 20.7239 16.9785 19.65C16.7662 18.5761 16.9329 17.4618 17.4499 16.497C17.967 15.5321 18.8026 14.7764 19.8144 14.3585C20.8261 13.9405 21.9515 13.8863 22.9987 14.2049C24.046 14.5236 24.9504 15.1955 25.5579 16.1061C26.1654 17.0167 26.4385 18.1098 26.3305 19.1991C26.2226 20.2885 25.7403 21.3067 24.9659 22.0804C24.5256 22.52 24.0029 22.8686 23.4278 23.1061C22.8526 23.3437 22.2363 23.4656 21.6141 23.4649V23.4649ZM21.6141 14.7783C21.0945 14.7778 20.5799 14.8797 20.0997 15.0782C19.6195 15.2767 19.1832 15.5678 18.8156 15.9351C18.448 16.3023 18.1564 16.7384 17.9574 17.2184C17.7584 17.6984 17.656 18.2129 17.656 18.7325C17.6561 19.2526 17.7599 19.7674 17.9614 20.2469C18.1629 20.7264 18.4579 21.1609 18.8294 21.525C19.5716 22.267 20.5782 22.6839 21.6278 22.6839C22.6773 22.6839 23.6839 22.267 24.4262 21.525C24.979 20.9708 25.3549 20.2651 25.5062 19.4972C25.6576 18.7292 25.5777 17.9336 25.2765 17.2112C24.9754 16.4887 24.4666 15.8718 23.8146 15.4387C23.1627 15.0057 22.3968 14.7758 21.6141 14.7783V14.7783Z" fill="#252F3F" fill-opacity="0.8"/>
</svg>
